Spacetime Data in statsurv • statsurv
…
However, we still don’t have valid spacetime data, because we have
gaps in id_time. So we can pad our data frame:

coord_df <- expand.grid(id_space = unique(aggregated_data$id_space),
                         id_time = 1:max(aggregated_data$id_time))
padded_aggregated_data <- full_join(aggregated_data, coord_df) %>%
  arrange(id_space, id_time)
#> Joining, by = c("id_space", "id_time")
padded_aggregated_data
#> # A tibble: 30 x 3
#> # Groups:   id_space [5]
#>    id_space id_time      y
#>       <int>   <int>  <dbl>
#>  1        1       1 NA    
#>  2        1       2  0.812
#>  3        1       3 NA    
#>  4        1       4 NA    
#>  5        1       5 NA    
#>  6        1       6 NA    
#>  7        2       1  4.48 
#>  8        2       2 NA    
#>  9        2       3 NA    
#> 10        2       4 NA    
#> # ... with 20 more rows
…
Another situation is where the data is stored as an sf object with an
additional field for time.

As an example, let’s take this example with fake data from New
Mexico. We have 3 time points for each geometry, as well as the county
name.

NM_sample_sf
#> Simple feature collection with 96 features and 3 fields
#> Geometry type: GEOMETRY
#> Dimension:     XY
#> Bounding box:  xmin: 114557.3 ymin: 3471000 xmax: 682840.2 ymax: 4102426
#> CRS:           +proj=utm +zone=13
#> # A tibble: 96 x 4
#>          y date       county                                            geometry
#>  *   <dbl> <date>     <chr>                                        <POLYGON [m]>
#>  1 0.493   2022-01-01 bernalillo ((374492.6 3859524, 371038.3 3859562, 371039.8~
#>  2 0.649   2022-02-01 bernalillo ((374492.6 3859524, 371038.3 3859562, 371039.8~
#>  3 0.00381 2022-03-01 bernalillo ((374492.6 3859524, 371038.3 3859562, 371039.8~
#>  4 0.133   2022-01-01 catron     ((125979.7 3764745, 126150.3 3769552, 126350.9~
#>  5 0.115   2022-02-01 catron     ((125979.7 3764745, 126150.3 3769552, 126350.9~
#>  6 0.480   2022-03-01 catron     ((125979.7 3764745, 126150.3 3769552, 126350.9~
#>  7 0.434   2022-01-01 chaves     ((563052.3 3761894, 569725.2 3761914, 577922 3~
#>  8 0.950   2022-02-01 chaves     ((563052.3 3761894, 569725.2 3761914, 577922 3~
#>  9 0.339   2022-03-01 chaves     ((563052.3 3761894, 569725.2 3761914, 577922 3~
#> 10 0.445   2022-01-01 colfax     ((509971.1 4012919, 504328.5 4012914, 499949.7~
#> # ... with 86 more rows

Because we have the county name, we can ignore the geometry and
create id_space based on the county names.

NM_sample_sf_id <- NM_sample_sf %>%
  mutate(id_space = match(county, unique(county)),
         id_time = match(date, sort(unique(date))))
NM_sample_sf_id
#> Simple feature collection with 96 features and 5 fields
#> Geometry type: GEOMETRY
#> Dimension:     XY
#> Bounding box:  xmin: 114557.3 ymin: 3471000 xmax: 682840.2 ymax: 4102426
#> CRS:           +proj=utm +zone=13
#> # A tibble: 96 x 6
#>          y date       county                            geometry id_sp~1 id_time
#>  *   <dbl> <date>     <chr>                        <POLYGON [m]>   <int>   <int>
#>  1 0.493   2022-01-01 bernalillo ((374492.6 3859524, 371038.3 3~       1       1
#>  2 0.649   2022-02-01 bernalillo ((374492.6 3859524, 371038.3 3~       1       2
#>  3 0.00381 2022-03-01 bernalillo ((374492.6 3859524, 371038.3 3~       1       3
#>  4 0.133   2022-01-01 catron     ((125979.7 3764745, 126150.3 3~       2       1
#>  5 0.115   2022-02-01 catron     ((125979.7 3764745, 126150.3 3~       2       2
#>  6 0.480   2022-03-01 catron     ((125979.7 3764745, 126150.3 3~       2       3
#>  7 0.434   2022-01-01 chaves     ((563052.3 3761894, 569725.2 3~       3       1
#>  8 0.950   2022-02-01 chaves     ((563052.3 3761894, 569725.2 3~       3       2
#>  9 0.339   2022-03-01 chaves     ((563052.3 3761894, 569725.2 3~       3       3
#> 10 0.445   2022-01-01 colfax     ((509971.1 4012919, 504328.5 4~       4       1
#> # ... with 86 more rows, and abbreviated variable name 1: id_space

It’s often also easier to split the data into two tables, one with
the aggregated data, and one with the spatial information

NM_sample_data <- NM_sample_sf_id %>%
  st_drop_geometry()

NM_sample_geom <- NM_sample_sf_id %>%
  select(id_space) %>%
  group_by(id_space) %>%
  slice_head(n = 1)

NM_sample_data
#> # A tibble: 96 x 5
#>          y date       county     id_space id_time
#>  *   <dbl> <date>     <chr>         <int>   <int>
#>  1 0.493   2022-01-01 bernalillo        1       1
#>  2 0.649   2022-02-01 bernalillo        1       2
#>  3 0.00381 2022-03-01 bernalillo        1       3
#>  4 0.133   2022-01-01 catron            2       1
#>  5 0.115   2022-02-01 catron            2       2
#>  6 0.480   2022-03-01 catron            2       3
#>  7 0.434   2022-01-01 chaves            3       1
#>  8 0.950   2022-02-01 chaves            3       2
#>  9 0.339   2022-03-01 chaves            3       3
#> 10 0.445   2022-01-01 colfax            4       1
#> # ... with 86 more rows

NM_sample_geom
#> Simple feature collection with 32 features and 1 field
#> Geometry type: GEOMETRY
#> Dimension:     XY
#> Bounding box:  xmin: 114557.3 ymin: 3471000 xmax: 682840.2 ymax: 4102426
#> CRS:           +proj=utm +zone=13
#> # A tibble: 32 x 2
#> # Groups:   id_space [32]
#>    id_space                                                             geometry
#>       <int>                                                       <GEOMETRY [m]>
#>  1        1 POLYGON ((374492.6 3859524, 371038.3 3859562, 371039.8 3860579, 371~
#>  2        2 POLYGON ((125979.7 3764745, 126150.3 3769552, 126350.9 3774176, 126~
#>  3        3 POLYGON ((563052.3 3761894, 569725.2 3761914, 577922 3761968, 57788~
#>  4        4 POLYGON ((509971.1 4012919, 504328.5 4012914, 499949.7 4012870, 498~
#>  5        5 GEOMETRYCOLLECTION (MULTIPOLYGON (((637673.3 3849533, 640863.6 3849~
#>  6        6 GEOMETRYCOLLECTION (MULTIPOLYGON (((526127.5 3762059, 519766.1 3762~
#>  7        7 GEOMETRYCOLLECTION (POLYGON ((284078 3598156, 284170.6 3600224, 284~
#>  8        8 POLYGON ((563319.6 3540653, 550400.7 3540573, 544243 3540566, 54021~
#>  9        9 POLYGON ((158862.9 3680471, 160064.1 3680425, 160059.7 3680246, 162~
#> 10       10 MULTIPOLYGON (((473385.2 3844025, 473385.2 3844025, 473385.2 384402~
#> # ... with 22 more rows
…
