An introduction to `statsurv` • statsurv
…
data("NM_county_sf")
data("NM_data")

NM_data <- as_tibble(NM_data) %>%
  select(-baseline_est) 
NM_data
#> # A tibble: 608 x 6
#>    id_time id_space  year county     population count
#>      <dbl>    <dbl> <int> <fct>           <int> <int>
#>  1       1        1  1973 bernalillo     353813    16
#>  2       2        1  1974 bernalillo     357520    16
#>  3       3        1  1975 bernalillo     368166    16
#>  4       4        1  1976 bernalillo     378483    16
#>  5       5        1  1977 bernalillo     388471    15
#>  6       6        1  1978 bernalillo     398130    18
#>  7       7        1  1979 bernalillo     407460    19
#>  8       8        1  1980 bernalillo     416461    22
#>  9       9        1  1981 bernalillo     425133    21
#> 10      10        1  1982 bernalillo     433476    21
#> # ... with 598 more rows
…
