Extract fitted values from a model object — extract_yhat • statsurv
…
library("scanstatistics")
library("broom")
library("broom.mixed")
data(NM_popcas)

# Fit a model to all the data, and then extract predictions:
fit <- glm(count ~ year,
           family = poisson(link = "log"),
           offset = log(population),
           data = NM_popcas[1:600, ])

# Then use extract_yhat to get out predictions for our observed variable:
extract_yhat(fit, NM_popcas, se_fit = TRUE)
#> # A tibble: 608 x 6
#>     year county     population count .fitted .se.fit
#>    <int> <fct>           <int> <int>   <dbl>   <dbl>
#>  1  1973 bernalillo     353813    16    13.7   0.851
#>  2  1974 bernalillo     357520    16    14.0   0.807
#>  3  1975 bernalillo     368166    16    14.7   0.778
#>  4  1976 bernalillo     378483    16    15.4   0.745
#>  5  1977 bernalillo     388471    15    16.1   0.710
#>  6  1978 bernalillo     398130    18    16.8   0.674
#>  7  1979 bernalillo     407460    19    17.4   0.641
#>  8  1980 bernalillo     416461    22    18.1   0.613
#>  9  1981 bernalillo     425133    21    18.8   0.593
#> 10  1982 bernalillo     433476    21    19.5   0.587
#> # ... with 598 more rows

# We can also fit glmer models
fit_glmer <- lme4::glmer(count ~ I(year - 1980) + (1 | county) + offset(log(population)),
                         family = "poisson",
                         data = NM_popcas[1:600, ])
extract_yhat(fit_glmer, NM_popcas, se_fit = TRUE)
#> # A tibble: 608 x 5
#>     year county     population count .fitted
#>    <int> <fct>           <int> <int>   <dbl>
#>  1  1973 bernalillo     353813    16    14.9
#>  2  1974 bernalillo     357520    16    15.3
#>  3  1975 bernalillo     368166    16    16.0
#>  4  1976 bernalillo     378483    16    16.8
#>  5  1977 bernalillo     388471    15    17.5
#>  6  1978 bernalillo     398130    18    18.2
#>  7  1979 bernalillo     407460    19    19.0
#>  8  1980 bernalillo     416461    22    19.8
#>  9  1981 bernalillo     425133    21    20.5
#> 10  1982 bernalillo     433476    21    21.3
#> # ... with 598 more rows
…
