Divide data into overlapping windows — window_idtime • statsurv
…
    Examples

x = rnorm(100)
spacetime_data <- data.frame(id_space = rep(1:10, each = 10),
                             id_time = rep(1:10, 10),
                             x = x,
                             y = 2.04 * x + 1.23)

# Create overlapping groups of data with at least 4 time points
# and up to 8 time points in the
# training set, and 2 time points in the prediction set.
window_idtime(spacetime_data, min_train = 4, max_train = 8,
              n_predict = 2, split_spatial_locations = TRUE)
#> # A tibble: 50 x 4
#>    window_time_id window_space_id split_id curr_data       
#>             <int>           <int>    <dbl> <list>          
#>  1              6               1        5 <tibble [6 x 4]>
#>  2              6               2        5 <tibble [6 x 4]>
#>  3              6               3        5 <tibble [6 x 4]>
#>  4              6               4        5 <tibble [6 x 4]>
#>  5              6               5        5 <tibble [6 x 4]>
#>  6              6               6        5 <tibble [6 x 4]>
#>  7              6               7        5 <tibble [6 x 4]>
#>  8              6               8        5 <tibble [6 x 4]>
#>  9              6               9        5 <tibble [6 x 4]>
#> 10              6              10        5 <tibble [6 x 4]>
#> # ... with 40 more rows

# The same, but put each spatial area in its own window
window_idtime(spacetime_data, min_train = 4, max_train = 8,
              n_predict = 2, split_spatial_locations = TRUE)
#> # A tibble: 50 x 4
#>    window_time_id window_space_id split_id curr_data       
#>             <int>           <int>    <dbl> <list>          
#>  1              6               1        5 <tibble [6 x 4]>
#>  2              6               2        5 <tibble [6 x 4]>
#>  3              6               3        5 <tibble [6 x 4]>
#>  4              6               4        5 <tibble [6 x 4]>
#>  5              6               5        5 <tibble [6 x 4]>
#>  6              6               6        5 <tibble [6 x 4]>
#>  7              6               7        5 <tibble [6 x 4]>
#>  8              6               8        5 <tibble [6 x 4]>
#>  9              6               9        5 <tibble [6 x 4]>
#> 10              6              10        5 <tibble [6 x 4]>
#> # ... with 40 more rows
…
